info face="Electrolize" size=20 bold=1 italic=0 charset="" unicode=0 stretchH=100 smooth=1 aa=1 padding=1,1,2,1 spacing=-2,-2
common lineHeight=26 base=19 scaleW=512 scaleH=512 pages=1 packed=0
page id=0 file="electrolize-bold.png"
chars count=210
char id=0       x=48   y=62   width=26   height=17   xoffset=0    yoffset=5    xadvance=25   page=0    chnl=0 
char id=13      x=0    y=0    width=0    height=0    xoffset=-1   yoffset=0    xadvance=0    page=0    chnl=0 
char id=32      x=0    y=0    width=0    height=0    xoffset=-1   yoffset=0    xadvance=6    page=0    chnl=0 
char id=33      x=247  y=24   width=5    height=18   xoffset=1    yoffset=3    xadvance=7    page=0    chnl=0 
char id=34      x=204  y=80   width=8    height=9    xoffset=0    yoffset=3    xadvance=8    page=0    chnl=0 
char id=35      x=198  y=62   width=14   height=16   xoffset=0    yoffset=4    xadvance=13   page=0    chnl=0 
char id=36      x=13   y=0    width=13   height=23   xoffset=0    yoffset=1    xadvance=14   page=0    chnl=0 
char id=37      x=43   y=24   width=20   height=19   xoffset=0    yoffset=3    xadvance=20   page=0    chnl=0 
char id=38      x=252  y=24   width=16   height=18   xoffset=0    yoffset=3    xadvance=15   page=0    chnl=0 
char id=39      x=212  y=80   width=5    height=9    xoffset=0    yoffset=3    xadvance=5    page=0    chnl=0 
char id=40      x=413  y=0    width=6    height=20   xoffset=0    yoffset=3    xadvance=5    page=0    chnl=0 
char id=41      x=419  y=0    width=6    height=20   xoffset=0    yoffset=3    xadvance=5    page=0    chnl=0 
char id=42      x=117  y=80   width=11   height=11   xoffset=0    yoffset=3    xadvance=12   page=0    chnl=0 
char id=43      x=93   y=80   width=12   height=13   xoffset=0    yoffset=6    xadvance=12   page=0    chnl=0 
char id=44      x=217  y=80   width=5    height=9    xoffset=0    yoffset=15   xadvance=5    page=0    chnl=0 
char id=45      x=337  y=80   width=11   height=5    xoffset=0    yoffset=10   xadvance=11   page=0    chnl=0 
char id=46      x=301  y=80   width=5    height=6    xoffset=0    yoffset=15   xadvance=5    page=0    chnl=0 
char id=47      x=425  y=0    width=16   height=20   xoffset=-2   yoffset=3    xadvance=12   page=0    chnl=0 
char id=48      x=268  y=24   width=15   height=18   xoffset=1    yoffset=3    xadvance=17   page=0    chnl=0 
char id=49      x=283  y=24   width=8    height=18   xoffset=0    yoffset=3    xadvance=9    page=0    chnl=0 
char id=50      x=291  y=24   width=13   height=18   xoffset=0    yoffset=3    xadvance=13   page=0    chnl=0 
char id=51      x=304  y=24   width=13   height=18   xoffset=0    yoffset=3    xadvance=13   page=0    chnl=0 
char id=52      x=317  y=24   width=14   height=18   xoffset=0    yoffset=3    xadvance=14   page=0    chnl=0 
char id=53      x=331  y=24   width=14   height=18   xoffset=0    yoffset=3    xadvance=14   page=0    chnl=0 
char id=54      x=345  y=24   width=14   height=18   xoffset=0    yoffset=3    xadvance=15   page=0    chnl=0 
char id=55      x=359  y=24   width=14   height=18   xoffset=-1   yoffset=3    xadvance=13   page=0    chnl=0 
char id=56      x=373  y=24   width=15   height=18   xoffset=0    yoffset=3    xadvance=15   page=0    chnl=0 
char id=57      x=388  y=24   width=14   height=18   xoffset=0    yoffset=3    xadvance=15   page=0    chnl=0 
char id=58      x=322  y=62   width=5    height=14   xoffset=0    yoffset=7    xadvance=5    page=0    chnl=0 
char id=59      x=502  y=44   width=5    height=17   xoffset=0    yoffset=7    xadvance=5    page=0    chnl=0 
char id=60      x=327  y=62   width=12   height=14   xoffset=0    yoffset=5    xadvance=11   page=0    chnl=0 
char id=61      x=243  y=80   width=12   height=8    xoffset=0    yoffset=8    xadvance=11   page=0    chnl=0 
char id=62      x=339  y=62   width=12   height=14   xoffset=0    yoffset=5    xadvance=11   page=0    chnl=0 
char id=63      x=402  y=24   width=13   height=18   xoffset=-1   yoffset=3    xadvance=12   page=0    chnl=0 
char id=64      x=212  y=62   width=15   height=16   xoffset=0    yoffset=6    xadvance=15   page=0    chnl=0 
char id=65      x=415  y=24   width=15   height=18   xoffset=0    yoffset=3    xadvance=15   page=0    chnl=0 
char id=66      x=430  y=24   width=13   height=18   xoffset=1    yoffset=3    xadvance=14   page=0    chnl=0 
char id=67      x=443  y=24   width=14   height=18   xoffset=1    yoffset=3    xadvance=14   page=0    chnl=0 
char id=68      x=457  y=24   width=14   height=18   xoffset=1    yoffset=3    xadvance=15   page=0    chnl=0 
char id=69      x=471  y=24   width=12   height=18   xoffset=1    yoffset=3    xadvance=13   page=0    chnl=0 
char id=70      x=483  y=24   width=12   height=18   xoffset=1    yoffset=3    xadvance=12   page=0    chnl=0 
char id=71      x=495  y=24   width=14   height=18   xoffset=1    yoffset=3    xadvance=15   page=0    chnl=0 
char id=72      x=0    y=44   width=14   height=18   xoffset=1    yoffset=3    xadvance=16   page=0    chnl=0 
char id=73      x=14   y=44   width=5    height=18   xoffset=1    yoffset=3    xadvance=7    page=0    chnl=0 
char id=74      x=19   y=44   width=12   height=18   xoffset=-1   yoffset=3    xadvance=11   page=0    chnl=0 
char id=75      x=31   y=44   width=13   height=18   xoffset=1    yoffset=3    xadvance=13   page=0    chnl=0 
char id=76      x=44   y=44   width=12   height=18   xoffset=1    yoffset=3    xadvance=12   page=0    chnl=0 
char id=77      x=56   y=44   width=18   height=18   xoffset=1    yoffset=3    xadvance=19   page=0    chnl=0 
char id=78      x=74   y=44   width=14   height=18   xoffset=1    yoffset=3    xadvance=16   page=0    chnl=0 
char id=79      x=88   y=44   width=15   height=18   xoffset=1    yoffset=3    xadvance=16   page=0    chnl=0 
char id=80      x=103  y=44   width=13   height=18   xoffset=1    yoffset=3    xadvance=14   page=0    chnl=0 
char id=81      x=140  y=0    width=15   height=21   xoffset=1    yoffset=3    xadvance=16   page=0    chnl=0 
char id=82      x=116  y=44   width=13   height=18   xoffset=1    yoffset=3    xadvance=14   page=0    chnl=0 
char id=83      x=129  y=44   width=13   height=18   xoffset=0    yoffset=3    xadvance=14   page=0    chnl=0 
char id=84      x=142  y=44   width=15   height=18   xoffset=-2   yoffset=3    xadvance=11   page=0    chnl=0 
char id=85      x=157  y=44   width=14   height=18   xoffset=1    yoffset=3    xadvance=16   page=0    chnl=0 
char id=86      x=171  y=44   width=15   height=18   xoffset=-1   yoffset=3    xadvance=13   page=0    chnl=0 
char id=87      x=186  y=44   width=22   height=18   xoffset=-1   yoffset=3    xadvance=20   page=0    chnl=0 
char id=88      x=208  y=44   width=15   height=18   xoffset=-1   yoffset=3    xadvance=13   page=0    chnl=0 
char id=89      x=223  y=44   width=14   height=18   xoffset=-1   yoffset=3    xadvance=12   page=0    chnl=0 
char id=90      x=237  y=44   width=14   height=18   xoffset=-1   yoffset=3    xadvance=12   page=0    chnl=0 
char id=91      x=441  y=0    width=7    height=20   xoffset=0    yoffset=3    xadvance=7    page=0    chnl=0 
char id=92      x=448  y=0    width=16   height=20   xoffset=-2   yoffset=3    xadvance=12   page=0    chnl=0 
char id=93      x=464  y=0    width=7    height=20   xoffset=0    yoffset=3    xadvance=7    page=0    chnl=0 
char id=94      x=306  y=80   width=8    height=6    xoffset=1    yoffset=4    xadvance=10   page=0    chnl=0 
char id=95      x=348  y=80   width=14   height=5    xoffset=-1   yoffset=18   xadvance=12   page=0    chnl=0 
char id=96      x=314  y=80   width=7    height=6    xoffset=0    yoffset=4    xadvance=8    page=0    chnl=0 
char id=97      x=351  y=62   width=13   height=14   xoffset=0    yoffset=7    xadvance=12   page=0    chnl=0 
char id=98      x=63   y=24   width=12   height=19   xoffset=0    yoffset=2    xadvance=12   page=0    chnl=0 
char id=99      x=364  y=62   width=12   height=14   xoffset=0    yoffset=7    xadvance=11   page=0    chnl=0 
char id=100     x=75   y=24   width=13   height=19   xoffset=0    yoffset=2    xadvance=13   page=0    chnl=0 
char id=101     x=376  y=62   width=12   height=14   xoffset=0    yoffset=7    xadvance=12   page=0    chnl=0 
char id=102     x=251  y=44   width=10   height=18   xoffset=-1   yoffset=3    xadvance=8    page=0    chnl=0 
char id=103     x=88   y=24   width=13   height=19   xoffset=0    yoffset=7    xadvance=13   page=0    chnl=0 
char id=104     x=101  y=24   width=12   height=19   xoffset=0    yoffset=2    xadvance=12   page=0    chnl=0 
char id=105     x=261  y=44   width=5    height=18   xoffset=0    yoffset=3    xadvance=5    page=0    chnl=0 
char id=106     x=71   y=0    width=7    height=22   xoffset=-2   yoffset=3    xadvance=5    page=0    chnl=0 
char id=107     x=500  y=0    width=11   height=19   xoffset=0    yoffset=2    xadvance=11   page=0    chnl=0 
char id=108     x=113  y=24   width=6    height=19   xoffset=0    yoffset=2    xadvance=6    page=0    chnl=0 
char id=109     x=388  y=62   width=18   height=14   xoffset=0    yoffset=7    xadvance=18   page=0    chnl=0 
char id=110     x=406  y=62   width=12   height=14   xoffset=0    yoffset=7    xadvance=12   page=0    chnl=0 
char id=111     x=418  y=62   width=12   height=14   xoffset=0    yoffset=7    xadvance=12   page=0    chnl=0 
char id=112     x=119  y=24   width=13   height=19   xoffset=0    yoffset=7    xadvance=13   page=0    chnl=0 
char id=113     x=132  y=24   width=13   height=19   xoffset=0    yoffset=7    xadvance=13   page=0    chnl=0 
char id=114     x=430  y=62   width=10   height=14   xoffset=0    yoffset=7    xadvance=9    page=0    chnl=0 
char id=115     x=440  y=62   width=12   height=14   xoffset=0    yoffset=7    xadvance=12   page=0    chnl=0 
char id=116     x=74   y=62   width=10   height=17   xoffset=-1   yoffset=4    xadvance=9    page=0    chnl=0 
char id=117     x=452  y=62   width=12   height=14   xoffset=0    yoffset=7    xadvance=12   page=0    chnl=0 
char id=118     x=464  y=62   width=13   height=14   xoffset=-1   yoffset=7    xadvance=10   page=0    chnl=0 
char id=119     x=477  y=62   width=18   height=14   xoffset=-1   yoffset=7    xadvance=16   page=0    chnl=0 
char id=120     x=495  y=62   width=12   height=14   xoffset=-1   yoffset=7    xadvance=11   page=0    chnl=0 
char id=121     x=145  y=24   width=12   height=19   xoffset=0    yoffset=7    xadvance=12   page=0    chnl=0 
char id=122     x=0    y=80   width=11   height=14   xoffset=0    yoffset=7    xadvance=10   page=0    chnl=0 
char id=123     x=471  y=0    width=7    height=20   xoffset=0    yoffset=3    xadvance=7    page=0    chnl=0 
char id=124     x=26   y=0    width=5    height=23   xoffset=1    yoffset=2    xadvance=6    page=0    chnl=0 
char id=125     x=478  y=0    width=7    height=20   xoffset=0    yoffset=3    xadvance=7    page=0    chnl=0 
char id=126     x=362  y=80   width=10   height=5    xoffset=0    yoffset=5    xadvance=10   page=0    chnl=0 
char id=160     x=0    y=0    width=0    height=0    xoffset=-1   yoffset=0    xadvance=6    page=0    chnl=0 
char id=161     x=266  y=44   width=5    height=18   xoffset=1    yoffset=8    xadvance=7    page=0    chnl=0 
char id=162     x=271  y=44   width=12   height=18   xoffset=0    yoffset=5    xadvance=12   page=0    chnl=0 
char id=163     x=283  y=44   width=14   height=18   xoffset=-1   yoffset=3    xadvance=13   page=0    chnl=0 
char id=164     x=105  y=80   width=12   height=12   xoffset=0    yoffset=7    xadvance=11   page=0    chnl=0 
char id=165     x=297  y=44   width=15   height=18   xoffset=-1   yoffset=3    xadvance=12   page=0    chnl=0 
char id=166     x=31   y=0    width=5    height=23   xoffset=1    yoffset=2    xadvance=6    page=0    chnl=0 
char id=167     x=78   y=0    width=14   height=22   xoffset=0    yoffset=3    xadvance=14   page=0    chnl=0 
char id=168     x=321  y=80   width=9    height=6    xoffset=0    yoffset=3    xadvance=9    page=0    chnl=0 
char id=169     x=227  y=62   width=16   height=16   xoffset=0    yoffset=4    xadvance=16   page=0    chnl=0 
char id=170     x=128  y=80   width=10   height=11   xoffset=0    yoffset=3    xadvance=10   page=0    chnl=0 
char id=171     x=11   y=80   width=11   height=14   xoffset=0    yoffset=7    xadvance=11   page=0    chnl=0 
char id=172     x=283  y=80   width=11   height=7    xoffset=0    yoffset=10   xadvance=11   page=0    chnl=0 
char id=173     x=372  y=80   width=8    height=5    xoffset=0    yoffset=10   xadvance=8    page=0    chnl=0 
char id=174     x=243  y=62   width=16   height=16   xoffset=0    yoffset=4    xadvance=16   page=0    chnl=0 
char id=175     x=380  y=80   width=14   height=5    xoffset=-1   yoffset=3    xadvance=12   page=0    chnl=0 
char id=176     x=185  y=80   width=9    height=10   xoffset=0    yoffset=3    xadvance=9    page=0    chnl=0 
char id=177     x=310  y=62   width=12   height=15   xoffset=0    yoffset=4    xadvance=12   page=0    chnl=0 
char id=178     x=138  y=80   width=9    height=11   xoffset=0    yoffset=3    xadvance=8    page=0    chnl=0 
char id=179     x=147  y=80   width=9    height=11   xoffset=0    yoffset=3    xadvance=8    page=0    chnl=0 
char id=180     x=330  y=80   width=7    height=6    xoffset=0    yoffset=4    xadvance=8    page=0    chnl=0 
char id=181     x=157  y=24   width=12   height=19   xoffset=0    yoffset=7    xadvance=12   page=0    chnl=0 
char id=182     x=36   y=0    width=11   height=23   xoffset=0    yoffset=2    xadvance=11   page=0    chnl=0 
char id=183     x=294  y=80   width=7    height=7    xoffset=0    yoffset=9    xadvance=7    page=0    chnl=0 
char id=184     x=255  y=80   width=7    height=8    xoffset=1    yoffset=17   xadvance=9    page=0    chnl=0 
char id=185     x=156  y=80   width=7    height=11   xoffset=0    yoffset=3    xadvance=6    page=0    chnl=0 
char id=186     x=163  y=80   width=10   height=11   xoffset=0    yoffset=3    xadvance=9    page=0    chnl=0 
char id=187     x=22   y=80   width=12   height=14   xoffset=0    yoffset=7    xadvance=11   page=0    chnl=0 
char id=188     x=169  y=24   width=16   height=19   xoffset=0    yoffset=3    xadvance=16   page=0    chnl=0 
char id=189     x=185  y=24   width=17   height=19   xoffset=0    yoffset=3    xadvance=17   page=0    chnl=0 
char id=190     x=202  y=24   width=18   height=19   xoffset=0    yoffset=3    xadvance=17   page=0    chnl=0 
char id=191     x=312  y=44   width=12   height=18   xoffset=0    yoffset=8    xadvance=12   page=0    chnl=0 
char id=192     x=155  y=0    width=15   height=21   xoffset=0    yoffset=0    xadvance=15   page=0    chnl=0 
char id=193     x=170  y=0    width=15   height=21   xoffset=0    yoffset=0    xadvance=15   page=0    chnl=0 
char id=194     x=185  y=0    width=15   height=21   xoffset=0    yoffset=0    xadvance=15   page=0    chnl=0 
char id=195     x=485  y=0    width=15   height=20   xoffset=0    yoffset=1    xadvance=15   page=0    chnl=0 
char id=196     x=200  y=0    width=15   height=21   xoffset=0    yoffset=0    xadvance=15   page=0    chnl=0 
char id=197     x=92   y=0    width=15   height=22   xoffset=0    yoffset=-1   xadvance=15   page=0    chnl=0 
char id=198     x=324  y=44   width=20   height=18   xoffset=-1   yoffset=3    xadvance=19   page=0    chnl=0 
char id=199     x=107  y=0    width=14   height=22   xoffset=1    yoffset=3    xadvance=14   page=0    chnl=0 
char id=200     x=215  y=0    width=12   height=21   xoffset=1    yoffset=0    xadvance=13   page=0    chnl=0 
char id=201     x=227  y=0    width=12   height=21   xoffset=1    yoffset=0    xadvance=13   page=0    chnl=0 
char id=202     x=239  y=0    width=12   height=21   xoffset=1    yoffset=0    xadvance=13   page=0    chnl=0 
char id=203     x=251  y=0    width=12   height=21   xoffset=1    yoffset=0    xadvance=13   page=0    chnl=0 
char id=204     x=263  y=0    width=7    height=21   xoffset=-1   yoffset=0    xadvance=7    page=0    chnl=0 
char id=205     x=121  y=0    width=7    height=22   xoffset=0    yoffset=-1   xadvance=7    page=0    chnl=0 
char id=206     x=270  y=0    width=8    height=21   xoffset=-1   yoffset=0    xadvance=7    page=0    chnl=0 
char id=207     x=278  y=0    width=9    height=21   xoffset=-1   yoffset=0    xadvance=7    page=0    chnl=0 
char id=208     x=344  y=44   width=16   height=18   xoffset=-1   yoffset=3    xadvance=16   page=0    chnl=0 
char id=209     x=0    y=24   width=14   height=20   xoffset=1    yoffset=1    xadvance=16   page=0    chnl=0 
char id=210     x=287  y=0    width=14   height=21   xoffset=1    yoffset=0    xadvance=17   page=0    chnl=0 
char id=211     x=301  y=0    width=14   height=21   xoffset=1    yoffset=0    xadvance=17   page=0    chnl=0 
char id=212     x=315  y=0    width=14   height=21   xoffset=1    yoffset=0    xadvance=17   page=0    chnl=0 
char id=213     x=14   y=24   width=14   height=20   xoffset=1    yoffset=1    xadvance=17   page=0    chnl=0 
char id=214     x=329  y=0    width=14   height=21   xoffset=1    yoffset=0    xadvance=17   page=0    chnl=0 
char id=215     x=194  y=80   width=10   height=10   xoffset=1    yoffset=8    xadvance=12   page=0    chnl=0 
char id=216     x=28   y=24   width=15   height=20   xoffset=1    yoffset=2    xadvance=16   page=0    chnl=0 
char id=217     x=343  y=0    width=14   height=21   xoffset=1    yoffset=0    xadvance=16   page=0    chnl=0 
char id=218     x=357  y=0    width=14   height=21   xoffset=1    yoffset=0    xadvance=16   page=0    chnl=0 
char id=219     x=371  y=0    width=14   height=21   xoffset=1    yoffset=0    xadvance=16   page=0    chnl=0 
char id=220     x=385  y=0    width=14   height=21   xoffset=1    yoffset=0    xadvance=16   page=0    chnl=0 
char id=221     x=399  y=0    width=14   height=21   xoffset=-1   yoffset=0    xadvance=12   page=0    chnl=0 
char id=222     x=360  y=44   width=13   height=18   xoffset=1    yoffset=3    xadvance=14   page=0    chnl=0 
char id=223     x=47   y=0    width=12   height=23   xoffset=0    yoffset=3    xadvance=12   page=0    chnl=0 
char id=224     x=84   y=62   width=13   height=17   xoffset=0    yoffset=4    xadvance=12   page=0    chnl=0 
char id=225     x=97   y=62   width=13   height=17   xoffset=0    yoffset=4    xadvance=12   page=0    chnl=0 
char id=226     x=373  y=44   width=13   height=18   xoffset=0    yoffset=3    xadvance=12   page=0    chnl=0 
char id=227     x=259  y=62   width=13   height=16   xoffset=0    yoffset=5    xadvance=12   page=0    chnl=0 
char id=228     x=386  y=44   width=13   height=18   xoffset=0    yoffset=3    xadvance=12   page=0    chnl=0 
char id=229     x=399  y=44   width=13   height=18   xoffset=0    yoffset=3    xadvance=12   page=0    chnl=0 
char id=230     x=34   y=80   width=19   height=14   xoffset=0    yoffset=7    xadvance=19   page=0    chnl=0 
char id=231     x=412  y=44   width=12   height=18   xoffset=0    yoffset=7    xadvance=11   page=0    chnl=0 
char id=232     x=110  y=62   width=12   height=17   xoffset=0    yoffset=4    xadvance=12   page=0    chnl=0 
char id=233     x=122  y=62   width=12   height=17   xoffset=0    yoffset=4    xadvance=12   page=0    chnl=0 
char id=234     x=424  y=44   width=12   height=18   xoffset=0    yoffset=3    xadvance=12   page=0    chnl=0 
char id=235     x=436  y=44   width=12   height=18   xoffset=0    yoffset=3    xadvance=12   page=0    chnl=0 
char id=236     x=134  y=62   width=7    height=17   xoffset=-2   yoffset=4    xadvance=5    page=0    chnl=0 
char id=237     x=141  y=62   width=9    height=17   xoffset=0    yoffset=4    xadvance=5    page=0    chnl=0 
char id=238     x=448  y=44   width=9    height=18   xoffset=-2   yoffset=3    xadvance=5    page=0    chnl=0 
char id=239     x=457  y=44   width=9    height=18   xoffset=-2   yoffset=3    xadvance=5    page=0    chnl=0 
char id=240     x=220  y=24   width=12   height=19   xoffset=0    yoffset=2    xadvance=12   page=0    chnl=0 
char id=241     x=272  y=62   width=12   height=16   xoffset=0    yoffset=5    xadvance=12   page=0    chnl=0 
char id=242     x=150  y=62   width=12   height=17   xoffset=0    yoffset=4    xadvance=12   page=0    chnl=0 
char id=243     x=162  y=62   width=12   height=17   xoffset=0    yoffset=4    xadvance=12   page=0    chnl=0 
char id=244     x=466  y=44   width=12   height=18   xoffset=0    yoffset=3    xadvance=12   page=0    chnl=0 
char id=245     x=284  y=62   width=12   height=16   xoffset=0    yoffset=5    xadvance=12   page=0    chnl=0 
char id=246     x=478  y=44   width=12   height=18   xoffset=0    yoffset=3    xadvance=12   page=0    chnl=0 
char id=247     x=173  y=80   width=12   height=11   xoffset=0    yoffset=7    xadvance=12   page=0    chnl=0 
char id=248     x=296  y=62   width=14   height=16   xoffset=-1   yoffset=6    xadvance=12   page=0    chnl=0 
char id=249     x=174  y=62   width=12   height=17   xoffset=0    yoffset=4    xadvance=12   page=0    chnl=0 
char id=250     x=186  y=62   width=12   height=17   xoffset=0    yoffset=4    xadvance=12   page=0    chnl=0 
char id=251     x=490  y=44   width=12   height=18   xoffset=0    yoffset=3    xadvance=12   page=0    chnl=0 
char id=252     x=0    y=62   width=12   height=18   xoffset=0    yoffset=3    xadvance=12   page=0    chnl=0 
char id=253     x=128  y=0    width=12   height=22   xoffset=0    yoffset=4    xadvance=12   page=0    chnl=0 
char id=254     x=0    y=0    width=13   height=24   xoffset=0    yoffset=2    xadvance=13   page=0    chnl=0 
char id=255     x=59   y=0    width=12   height=23   xoffset=0    yoffset=3    xadvance=12   page=0    chnl=0 
char id=305     x=53   y=80   width=5    height=14   xoffset=0    yoffset=7    xadvance=5    page=0    chnl=0 
char id=338     x=12   y=62   width=20   height=18   xoffset=1    yoffset=3    xadvance=22   page=0    chnl=0 
char id=339     x=58   y=80   width=19   height=14   xoffset=0    yoffset=7    xadvance=19   page=0    chnl=0 
char id=8204    x=0    y=0    width=0    height=0    xoffset=-1   yoffset=0    xadvance=0    page=0    chnl=0 
char id=8211    x=394  y=80   width=15   height=5    xoffset=-1   yoffset=10   xadvance=13   page=0    chnl=0 
char id=8212    x=409  y=80   width=16   height=5    xoffset=-1   yoffset=10   xadvance=14   page=0    chnl=0 
char id=8216    x=262  y=80   width=5    height=8    xoffset=0    yoffset=3    xadvance=5    page=0    chnl=0 
char id=8217    x=222  y=80   width=5    height=9    xoffset=0    yoffset=3    xadvance=5    page=0    chnl=0 
char id=8218    x=217  y=80   width=5    height=9    xoffset=0    yoffset=15   xadvance=5    page=0    chnl=0 
char id=8220    x=267  y=80   width=8    height=8    xoffset=0    yoffset=3    xadvance=8    page=0    chnl=0 
char id=8221    x=227  y=80   width=8    height=9    xoffset=0    yoffset=3    xadvance=8    page=0    chnl=0 
char id=8222    x=235  y=80   width=8    height=9    xoffset=0    yoffset=15   xadvance=8    page=0    chnl=0 
char id=8226    x=275  y=80   width=8    height=8    xoffset=0    yoffset=8    xadvance=8    page=0    chnl=0 
char id=8249    x=77   y=80   width=8    height=14   xoffset=0    yoffset=7    xadvance=8    page=0    chnl=0 
char id=8250    x=85   y=80   width=8    height=14   xoffset=0    yoffset=7    xadvance=8    page=0    chnl=0 
char id=8260    x=232  y=24   width=15   height=19   xoffset=-1   yoffset=3    xadvance=13   page=0    chnl=0 
char id=8364    x=32   y=62   width=16   height=18   xoffset=-1   yoffset=3    xadvance=15   page=0    chnl=0 
kernings count=0
