<?xml version="1.0" encoding="UTF-8"?>
<module rename-to='uplog'>
    <!-- Inherit the core Web Toolkit stuff. -->
    <inherits name='com.google.gwt.user.User'/>

    <!-- Inherit the default GWT style sheet. You can change -->
    <!-- the theme of your GWT application by uncommenting -->
    <!-- any one of the following lines. -->
    <!-- <inherits name='com.google.gwt.user.theme.standard.Standard'/> -->
    <!-- <inherits name='com.google.gwt.user.theme.chrome.Chrome'/> -->
    <!-- <inherits name='com.google.gwt.user.theme.dark.Dark'/> -->

    <inherits name="com.google.gwt.i18n.I18N"/>
    <inherits name="com.universeprojects.json.JSONSimple"/>

    <!-- Specify the paths for translatable code -->
    <source path='shared'/>

</module>
